4 import the latitude data | The Influence of Inclusion on Attendance: A Matched Comparison Study of NYC Public Schools
…
#Extract long+lat data
odd <- seq(1,201,2)
even <- seq(2,202,2)
long <- c()
lat <- c()

for (i in 1:101){
  long[i] <- x[odd[i]]
  lat[i] <- x[even[i]]
}
gf_combined$long <- as.numeric(long)
gf_combined$lat <- as.numeric(lat)
gf_combined
#> # A tibble: 101 × 7
#>    the_geom                  Loc_Name DBN   borough `Economic Need…`  long   lat
#>    <chr>                     <chr>    <chr> <chr>              <dbl> <dbl> <dbl>
#>  1 POINT (-73.7539859123861… P.S. 18… 26Q1… Queens             0.226 -73.8  40.7
#>  2 POINT (-73.8310257169023… P.S. 10… 27Q1… Queens             0.663 -73.8  40.7
#>  3 POINT (-73.7706741432616… P.S. 376 32K3… Brookl…            0.845 -73.8  40.8
#>  4 POINT (-74.0061374343569… P.S. 20… 20K2… Brookl…            0.652 -74.0  40.6
#>  5 POINT (-73.8927609162821… P.S. 14… 19K1… Brookl…            0.909 -73.9  40.7
#>  6 POINT (-73.8089872473460… P.S. 19… 25Q1… Queens             0.282 -73.8  40.8
#>  7 POINT (-73.8799319301508… P.S. 214 12X2… Bronx              0.914 -73.9  40.8
#>  8 POINT (-73.9318395131457… P.S. 02… 16K0… Brookl…            0.859 -73.9  40.7
#>  9 POINT (-73.9504201841683… P.S. 77… 02M0… Manhat…            0.097 -74.0  40.8
#> 10 POINT (-74.2118508310823… P.S. 00… 31R0… Staten…            0.237 -74.2  40.5
#> # … with 91 more rows
